{
	"textures": [
		{
			"image": "atlas.png",
			"format": "RGBA8888",
			"size": {
				"w": 743,
				"h": 128
			},
			"scale": 1,
			"frames": [
				{
					"filename": "door/door01.png",
					"rotated": false,
					"trimmed": false,
					"sourceSize": {
						"w": 32,
						"h": 64
					},
					"spriteSourceSize": {
						"x": 0,
						"y": 0,
						"w": 32,
						"h": 64
					},
					"frame": {
						"x": 1,
						"y": 1,
						"w": 32,
						"h": 64
					}
				},
				{
					"filename": "player/mp_idle_left_01.png",
					"rotated": false,
					"trimmed": true,
					"sourceSize": {
						"w": 31,
						"h": 53
					},
					"spriteSourceSize": {
						"x": 3,
						"y": 1,
						"w": 26,
						"h": 52
					},
					"frame": {
						"x": 1,
						"y": 67,
						"w": 26,
						"h": 52
					}
				},
				{
					"filename": "spikes/spikes04.png",
					"rotated": false,
					"trimmed": true,
					"sourceSize": {
						"w": 63,
						"h": 32
					},
					"spriteSourceSize": {
						"x": 0,
						"y": 26,
						"w": 63,
						"h": 6
					},
					"frame": {
						"x": 1,
						"y": 121,
						"w": 63,
						"h": 6
					}
				},
				{
					"filename": "spikes/spikes06.png",
					"rotated": false,
					"trimmed": true,
					"sourceSize": {
						"w": 63,
						"h": 32
					},
					"spriteSourceSize": {
						"x": 0,
						"y": 26,
						"w": 63,
						"h": 6
					},
					"frame": {
						"x": 1,
						"y": 121,
						"w": 63,
						"h": 6
					}
				},
				{
					"filename": "player/mp_idle_left_02.png",
					"rotated": false,
					"trimmed": true,
					"sourceSize": {
						"w": 31,
						"h": 53
					},
					"spriteSourceSize": {
						"x": 3,
						"y": 1,
						"w": 26,
						"h": 52
					},
					"frame": {
						"x": 29,
						"y": 67,
						"w": 26,
						"h": 52
					}
				},
				{
					"filename": "door/door02.png",
					"rotated": false,
					"trimmed": false,
					"sourceSize": {
						"w": 32,
						"h": 64
					},
					"spriteSourceSize": {
						"x": 0,
						"y": 0,
						"w": 32,
						"h": 64
					},
					"frame": {
						"x": 35,
						"y": 1,
						"w": 32,
						"h": 64
					}
				},
				{
					"filename": "player/mp_idle_right_01.png",
					"rotated": false,
					"trimmed": true,
					"sourceSize": {
						"w": 31,
						"h": 53
					},
					"spriteSourceSize": {
						"x": 3,
						"y": 1,
						"w": 26,
						"h": 52
					},
					"frame": {
						"x": 57,
						"y": 67,
						"w": 26,
						"h": 52
					}
				},
				{
					"filename": "door/door03.png",
					"rotated": false,
					"trimmed": false,
					"sourceSize": {
						"w": 32,
						"h": 64
					},
					"spriteSourceSize": {
						"x": 0,
						"y": 0,
						"w": 32,
						"h": 64
					},
					"frame": {
						"x": 69,
						"y": 1,
						"w": 32,
						"h": 64
					}
				},
				{
					"filename": "spikes/spikes03.png",
					"rotated": false,
					"trimmed": true,
					"sourceSize": {
						"w": 63,
						"h": 32
					},
					"spriteSourceSize": {
						"x": 0,
						"y": 27,
						"w": 63,
						"h": 5
					},
					"frame": {
						"x": 66,
						"y": 121,
						"w": 63,
						"h": 5
					}
				},
				{
					"filename": "player/mp_idle_right_02.png",
					"rotated": false,
					"trimmed": true,
					"sourceSize": {
						"w": 31,
						"h": 53
					},
					"spriteSourceSize": {
						"x": 3,
						"y": 1,
						"w": 26,
						"h": 52
					},
					"frame": {
						"x": 85,
						"y": 67,
						"w": 26,
						"h": 52
					}
				},
				{
					"filename": "door/door04.png",
					"rotated": false,
					"trimmed": false,
					"sourceSize": {
						"w": 32,
						"h": 64
					},
					"spriteSourceSize": {
						"x": 0,
						"y": 0,
						"w": 32,
						"h": 64
					},
					"frame": {
						"x": 103,
						"y": 1,
						"w": 32,
						"h": 64
					}
				},
				{
					"filename": "player/mp_walk_left_01.png",
					"rotated": false,
					"trimmed": true,
					"sourceSize": {
						"w": 32,
						"h": 58
					},
					"spriteSourceSize": {
						"x": 3,
						"y": 1,
						"w": 26,
						"h": 52
					},
					"frame": {
						"x": 113,
						"y": 67,
						"w": 26,
						"h": 52
					}
				},
				{
					"filename": "door/door05.png",
					"rotated": false,
					"trimmed": false,
					"sourceSize": {
						"w": 32,
						"h": 64
					},
					"spriteSourceSize": {
						"x": 0,
						"y": 0,
						"w": 32,
						"h": 64
					},
					"frame": {
						"x": 137,
						"y": 1,
						"w": 32,
						"h": 64
					}
				},
				{
					"filename": "spikes/spikes07.png",
					"rotated": false,
					"trimmed": true,
					"sourceSize": {
						"w": 63,
						"h": 32
					},
					"spriteSourceSize": {
						"x": 0,
						"y": 27,
						"w": 63,
						"h": 5
					},
					"frame": {
						"x": 131,
						"y": 121,
						"w": 63,
						"h": 5
					}
				},
				{
					"filename": "player/mp_walk_left_03.png",
					"rotated": false,
					"trimmed": true,
					"sourceSize": {
						"w": 32,
						"h": 58
					},
					"spriteSourceSize": {
						"x": 3,
						"y": 1,
						"w": 26,
						"h": 52
					},
					"frame": {
						"x": 141,
						"y": 67,
						"w": 26,
						"h": 52
					}
				},
				{
					"filename": "player/mp_walk_right_01.png",
					"rotated": false,
					"trimmed": true,
					"sourceSize": {
						"w": 32,
						"h": 58
					},
					"spriteSourceSize": {
						"x": 3,
						"y": 1,
						"w": 26,
						"h": 52
					},
					"frame": {
						"x": 169,
						"y": 67,
						"w": 26,
						"h": 52
					}
				},
				{
					"filename": "player/mp_walk_right_03.png",
					"rotated": false,
					"trimmed": true,
					"sourceSize": {
						"w": 32,
						"h": 58
					},
					"spriteSourceSize": {
						"x": 3,
						"y": 1,
						"w": 26,
						"h": 52
					},
					"frame": {
						"x": 169,
						"y": 67,
						"w": 26,
						"h": 52
					}
				},
				{
					"filename": "door/door06.png",
					"rotated": false,
					"trimmed": false,
					"sourceSize": {
						"w": 32,
						"h": 64
					},
					"spriteSourceSize": {
						"x": 0,
						"y": 0,
						"w": 32,
						"h": 64
					},
					"frame": {
						"x": 171,
						"y": 1,
						"w": 32,
						"h": 64
					}
				},
				{
					"filename": "spikes/spikes02.png",
					"rotated": false,
					"trimmed": true,
					"sourceSize": {
						"w": 63,
						"h": 32
					},
					"spriteSourceSize": {
						"x": 0,
						"y": 28,
						"w": 63,
						"h": 4
					},
					"frame": {
						"x": 196,
						"y": 121,
						"w": 63,
						"h": 4
					}
				},
				{
					"filename": "spikes/spikes08.png",
					"rotated": false,
					"trimmed": true,
					"sourceSize": {
						"w": 63,
						"h": 32
					},
					"spriteSourceSize": {
						"x": 0,
						"y": 28,
						"w": 63,
						"h": 4
					},
					"frame": {
						"x": 196,
						"y": 121,
						"w": 63,
						"h": 4
					}
				},
				{
					"filename": "player/mp_walk_left_02.png",
					"rotated": false,
					"trimmed": true,
					"sourceSize": {
						"w": 32,
						"h": 58
					},
					"spriteSourceSize": {
						"x": 3,
						"y": 1,
						"w": 26,
						"h": 51
					},
					"frame": {
						"x": 197,
						"y": 67,
						"w": 26,
						"h": 51
					}
				},
				{
					"filename": "door/door07.png",
					"rotated": false,
					"trimmed": false,
					"sourceSize": {
						"w": 32,
						"h": 64
					},
					"spriteSourceSize": {
						"x": 0,
						"y": 0,
						"w": 32,
						"h": 64
					},
					"frame": {
						"x": 205,
						"y": 1,
						"w": 32,
						"h": 64
					}
				},
				{
					"filename": "player/mp_walk_left_04.png",
					"rotated": false,
					"trimmed": true,
					"sourceSize": {
						"w": 32,
						"h": 58
					},
					"spriteSourceSize": {
						"x": 3,
						"y": 7,
						"w": 26,
						"h": 51
					},
					"frame": {
						"x": 225,
						"y": 67,
						"w": 26,
						"h": 51
					}
				},
				{
					"filename": "door/door08.png",
					"rotated": false,
					"trimmed": false,
					"sourceSize": {
						"w": 32,
						"h": 64
					},
					"spriteSourceSize": {
						"x": 0,
						"y": 0,
						"w": 32,
						"h": 64
					},
					"frame": {
						"x": 239,
						"y": 1,
						"w": 32,
						"h": 64
					}
				},
				{
					"filename": "player/mp_walk_right_02.png",
					"rotated": false,
					"trimmed": true,
					"sourceSize": {
						"w": 32,
						"h": 58
					},
					"spriteSourceSize": {
						"x": 3,
						"y": 1,
						"w": 26,
						"h": 51
					},
					"frame": {
						"x": 253,
						"y": 67,
						"w": 26,
						"h": 51
					}
				},
				{
					"filename": "spikes/spikes05.png",
					"rotated": false,
					"trimmed": true,
					"sourceSize": {
						"w": 63,
						"h": 32
					},
					"spriteSourceSize": {
						"x": 0,
						"y": 25,
						"w": 63,
						"h": 7
					},
					"frame": {
						"x": 261,
						"y": 120,
						"w": 63,
						"h": 7
					}
				},
				{
					"filename": "door/door09.png",
					"rotated": false,
					"trimmed": false,
					"sourceSize": {
						"w": 32,
						"h": 64
					},
					"spriteSourceSize": {
						"x": 0,
						"y": 0,
						"w": 32,
						"h": 64
					},
					"frame": {
						"x": 273,
						"y": 1,
						"w": 32,
						"h": 64
					}
				},
				{
					"filename": "player/mp_walk_right_04.png",
					"rotated": false,
					"trimmed": true,
					"sourceSize": {
						"w": 32,
						"h": 58
					},
					"spriteSourceSize": {
						"x": 3,
						"y": 7,
						"w": 26,
						"h": 51
					},
					"frame": {
						"x": 281,
						"y": 67,
						"w": 26,
						"h": 51
					}
				},
				{
					"filename": "door/door10.png",
					"rotated": false,
					"trimmed": false,
					"sourceSize": {
						"w": 32,
						"h": 64
					},
					"spriteSourceSize": {
						"x": 0,
						"y": 0,
						"w": 32,
						"h": 64
					},
					"frame": {
						"x": 307,
						"y": 1,
						"w": 32,
						"h": 64
					}
				},
				{
					"filename": "player/mp_jump_left.png",
					"rotated": false,
					"trimmed": true,
					"sourceSize": {
						"w": 29,
						"h": 49
					},
					"spriteSourceSize": {
						"x": 0,
						"y": 1,
						"w": 29,
						"h": 48
					},
					"frame": {
						"x": 309,
						"y": 67,
						"w": 29,
						"h": 48
					}
				},
				{
					"filename": "spikes/spikes01.png",
					"rotated": false,
					"trimmed": true,
					"sourceSize": {
						"w": 63,
						"h": 32
					},
					"spriteSourceSize": {
						"x": 2,
						"y": 29,
						"w": 61,
						"h": 3
					},
					"frame": {
						"x": 326,
						"y": 117,
						"w": 61,
						"h": 3
					}
				},
				{
					"filename": "spikes/spikes09.png",
					"rotated": false,
					"trimmed": true,
					"sourceSize": {
						"w": 63,
						"h": 32
					},
					"spriteSourceSize": {
						"x": 2,
						"y": 29,
						"w": 61,
						"h": 3
					},
					"frame": {
						"x": 326,
						"y": 117,
						"w": 61,
						"h": 3
					}
				},
				{
					"filename": "player/mp_jump_right.png",
					"rotated": false,
					"trimmed": true,
					"sourceSize": {
						"w": 32,
						"h": 49
					},
					"spriteSourceSize": {
						"x": 3,
						"y": 1,
						"w": 29,
						"h": 48
					},
					"frame": {
						"x": 340,
						"y": 67,
						"w": 29,
						"h": 48
					}
				},
				{
					"filename": "enemies/blaze/attack4.png",
					"rotated": false,
					"trimmed": true,
					"sourceSize": {
						"w": 32,
						"h": 32
					},
					"spriteSourceSize": {
						"x": 6,
						"y": 0,
						"w": 26,
						"h": 32
					},
					"frame": {
						"x": 341,
						"y": 1,
						"w": 26,
						"h": 32
					}
				},
				{
					"filename": "enemies/blaze/attack13.png",
					"rotated": false,
					"trimmed": true,
					"sourceSize": {
						"w": 32,
						"h": 32
					},
					"spriteSourceSize": {
						"x": 0,
						"y": 0,
						"w": 32,
						"h": 29
					},
					"frame": {
						"x": 341,
						"y": 35,
						"w": 32,
						"h": 29
					}
				},
				{
					"filename": "enemies/blaze/attack9.png",
					"rotated": false,
					"trimmed": true,
					"sourceSize": {
						"w": 32,
						"h": 32
					},
					"spriteSourceSize": {
						"x": 6,
						"y": 0,
						"w": 26,
						"h": 32
					},
					"frame": {
						"x": 369,
						"y": 1,
						"w": 26,
						"h": 32
					}
				},
				{
					"filename": "enemies/blaze/attack3.png",
					"rotated": false,
					"trimmed": true,
					"sourceSize": {
						"w": 32,
						"h": 32
					},
					"spriteSourceSize": {
						"x": 7,
						"y": 0,
						"w": 25,
						"h": 32
					},
					"frame": {
						"x": 371,
						"y": 66,
						"w": 25,
						"h": 32
					}
				},
				{
					"filename": "enemies/blaze/attack12.png",
					"rotated": false,
					"trimmed": true,
					"sourceSize": {
						"w": 32,
						"h": 32
					},
					"spriteSourceSize": {
						"x": 6,
						"y": 1,
						"w": 26,
						"h": 27
					},
					"frame": {
						"x": 389,
						"y": 100,
						"w": 26,
						"h": 27
					}
				},
				{
					"filename": "enemies/flamo/walk01.png",
					"rotated": false,
					"trimmed": false,
					"sourceSize": {
						"w": 21,
						"h": 29
					},
					"spriteSourceSize": {
						"x": 0,
						"y": 0,
						"w": 21,
						"h": 29
					},
					"frame": {
						"x": 375,
						"y": 35,
						"w": 21,
						"h": 29
					}
				},
				{
					"filename": "enemies/blaze/idle01.png",
					"rotated": false,
					"trimmed": true,
					"sourceSize": {
						"w": 32,
						"h": 32
					},
					"spriteSourceSize": {
						"x": 4,
						"y": 0,
						"w": 24,
						"h": 32
					},
					"frame": {
						"x": 397,
						"y": 1,
						"w": 24,
						"h": 32
					}
				},
				{
					"filename": "enemies/blaze/rage5.png",
					"rotated": false,
					"trimmed": true,
					"sourceSize": {
						"w": 32,
						"h": 32
					},
					"spriteSourceSize": {
						"x": 5,
						"y": 0,
						"w": 24,
						"h": 32
					},
					"frame": {
						"x": 398,
						"y": 35,
						"w": 24,
						"h": 32
					}
				},
				{
					"filename": "enemies/blaze/walk02.png",
					"rotated": false,
					"trimmed": true,
					"sourceSize": {
						"w": 32,
						"h": 32
					},
					"spriteSourceSize": {
						"x": 4,
						"y": 0,
						"w": 24,
						"h": 32
					},
					"frame": {
						"x": 423,
						"y": 1,
						"w": 24,
						"h": 32
					}
				},
				{
					"filename": "enemies/flamo/walk02.png",
					"rotated": false,
					"trimmed": false,
					"sourceSize": {
						"w": 21,
						"h": 29
					},
					"spriteSourceSize": {
						"x": 0,
						"y": 0,
						"w": 21,
						"h": 29
					},
					"frame": {
						"x": 398,
						"y": 69,
						"w": 21,
						"h": 29
					}
				},
				{
					"filename": "bird/walk03.png",
					"rotated": false,
					"trimmed": true,
					"sourceSize": {
						"w": 32,
						"h": 32
					},
					"spriteSourceSize": {
						"x": 2,
						"y": 4,
						"w": 25,
						"h": 27
					},
					"frame": {
						"x": 417,
						"y": 100,
						"w": 25,
						"h": 27
					}
				},
				{
					"filename": "enemies/flamo/walk03.png",
					"rotated": false,
					"trimmed": false,
					"sourceSize": {
						"w": 21,
						"h": 29
					},
					"spriteSourceSize": {
						"x": 0,
						"y": 0,
						"w": 21,
						"h": 29
					},
					"frame": {
						"x": 421,
						"y": 69,
						"w": 21,
						"h": 29
					}
				},
				{
					"filename": "enemies/blaze/walk03.png",
					"rotated": false,
					"trimmed": true,
					"sourceSize": {
						"w": 32,
						"h": 32
					},
					"spriteSourceSize": {
						"x": 5,
						"y": 0,
						"w": 24,
						"h": 32
					},
					"frame": {
						"x": 424,
						"y": 35,
						"w": 24,
						"h": 32
					}
				},
				{
					"filename": "enemies/blaze/idle02.png",
					"rotated": false,
					"trimmed": true,
					"sourceSize": {
						"w": 32,
						"h": 32
					},
					"spriteSourceSize": {
						"x": 5,
						"y": 0,
						"w": 23,
						"h": 32
					},
					"frame": {
						"x": 449,
						"y": 1,
						"w": 23,
						"h": 32
					}
				},
				{
					"filename": "enemies/blaze/idle05.png",
					"rotated": false,
					"trimmed": true,
					"sourceSize": {
						"w": 32,
						"h": 32
					},
					"spriteSourceSize": {
						"x": 6,
						"y": 0,
						"w": 23,
						"h": 32
					},
					"frame": {
						"x": 444,
						"y": 69,
						"w": 23,
						"h": 32
					}
				},
				{
					"filename": "bird/fly02.png",
					"rotated": false,
					"trimmed": true,
					"sourceSize": {
						"w": 32,
						"h": 32
					},
					"spriteSourceSize": {
						"x": 0,
						"y": 4,
						"w": 29,
						"h": 24
					},
					"frame": {
						"x": 444,
						"y": 103,
						"w": 29,
						"h": 24
					}
				},
				{
					"filename": "enemies/blaze/rage4.png",
					"rotated": false,
					"trimmed": true,
					"sourceSize": {
						"w": 32,
						"h": 32
					},
					"spriteSourceSize": {
						"x": 5,
						"y": 0,
						"w": 23,
						"h": 32
					},
					"frame": {
						"x": 450,
						"y": 35,
						"w": 23,
						"h": 32
					}
				},
				{
					"filename": "enemies/blaze/walk01.png",
					"rotated": false,
					"trimmed": true,
					"sourceSize": {
						"w": 32,
						"h": 32
					},
					"spriteSourceSize": {
						"x": 6,
						"y": 0,
						"w": 23,
						"h": 32
					},
					"frame": {
						"x": 474,
						"y": 1,
						"w": 23,
						"h": 32
					}
				},
				{
					"filename": "enemies/blaze/rage1.png",
					"rotated": false,
					"trimmed": true,
					"sourceSize": {
						"w": 32,
						"h": 32
					},
					"spriteSourceSize": {
						"x": 5,
						"y": 0,
						"w": 22,
						"h": 32
					},
					"frame": {
						"x": 469,
						"y": 69,
						"w": 22,
						"h": 32
					}
				},
				{
					"filename": "bunny/walk01.png",
					"rotated": false,
					"trimmed": true,
					"sourceSize": {
						"w": 32,
						"h": 32
					},
					"spriteSourceSize": {
						"x": 3,
						"y": 8,
						"w": 27,
						"h": 24
					},
					"frame": {
						"x": 475,
						"y": 103,
						"w": 27,
						"h": 24
					}
				},
				{
					"filename": "enemies/blaze/rage2.png",
					"rotated": false,
					"trimmed": true,
					"sourceSize": {
						"w": 32,
						"h": 32
					},
					"spriteSourceSize": {
						"x": 5,
						"y": 0,
						"w": 22,
						"h": 32
					},
					"frame": {
						"x": 475,
						"y": 35,
						"w": 22,
						"h": 32
					}
				},
				{
					"filename": "enemies/blaze/idle03.png",
					"rotated": false,
					"trimmed": true,
					"sourceSize": {
						"w": 32,
						"h": 32
					},
					"spriteSourceSize": {
						"x": 7,
						"y": 0,
						"w": 21,
						"h": 32
					},
					"frame": {
						"x": 493,
						"y": 69,
						"w": 21,
						"h": 32
					}
				},
				{
					"filename": "bird/idle02.png",
					"rotated": false,
					"trimmed": true,
					"sourceSize": {
						"w": 32,
						"h": 32
					},
					"spriteSourceSize": {
						"x": 3,
						"y": 8,
						"w": 28,
						"h": 22
					},
					"frame": {
						"x": 504,
						"y": 103,
						"w": 28,
						"h": 22
					}
				},
				{
					"filename": "enemies/blaze/idle04.png",
					"rotated": false,
					"trimmed": true,
					"sourceSize": {
						"w": 32,
						"h": 32
					},
					"spriteSourceSize": {
						"x": 7,
						"y": 0,
						"w": 19,
						"h": 32
					},
					"frame": {
						"x": 499,
						"y": 1,
						"w": 19,
						"h": 32
					}
				},
				{
					"filename": "enemies/blaze/attack1.png",
					"rotated": false,
					"trimmed": true,
					"sourceSize": {
						"w": 32,
						"h": 32
					},
					"spriteSourceSize": {
						"x": 6,
						"y": 0,
						"w": 25,
						"h": 31
					},
					"frame": {
						"x": 499,
						"y": 35,
						"w": 25,
						"h": 31
					}
				},
				{
					"filename": "enemies/blaze/attack15.png",
					"rotated": false,
					"trimmed": true,
					"sourceSize": {
						"w": 32,
						"h": 32
					},
					"spriteSourceSize": {
						"x": 5,
						"y": 0,
						"w": 25,
						"h": 31
					},
					"frame": {
						"x": 520,
						"y": 1,
						"w": 25,
						"h": 31
					}
				},
				{
					"filename": "enemies/blaze/idle06.png",
					"rotated": false,
					"trimmed": true,
					"sourceSize": {
						"w": 32,
						"h": 32
					},
					"spriteSourceSize": {
						"x": 5,
						"y": 0,
						"w": 25,
						"h": 31
					},
					"frame": {
						"x": 516,
						"y": 68,
						"w": 25,
						"h": 31
					}
				},
				{
					"filename": "bird/idle01.png",
					"rotated": false,
					"trimmed": true,
					"sourceSize": {
						"w": 32,
						"h": 32
					},
					"spriteSourceSize": {
						"x": 4,
						"y": 4,
						"w": 27,
						"h": 26
					},
					"frame": {
						"x": 534,
						"y": 101,
						"w": 27,
						"h": 26
					}
				},
				{
					"filename": "enemies/blaze/attack10.png",
					"rotated": false,
					"trimmed": true,
					"sourceSize": {
						"w": 32,
						"h": 32
					},
					"spriteSourceSize": {
						"x": 6,
						"y": 0,
						"w": 21,
						"h": 31
					},
					"frame": {
						"x": 526,
						"y": 34,
						"w": 21,
						"h": 31
					}
				},
				{
					"filename": "enemies/blaze/attack14.png",
					"rotated": false,
					"trimmed": true,
					"sourceSize": {
						"w": 32,
						"h": 32
					},
					"spriteSourceSize": {
						"x": 6,
						"y": 0,
						"w": 21,
						"h": 31
					},
					"frame": {
						"x": 547,
						"y": 1,
						"w": 21,
						"h": 31
					}
				},
				{
					"filename": "enemies/blaze/attack2.png",
					"rotated": false,
					"trimmed": true,
					"sourceSize": {
						"w": 32,
						"h": 32
					},
					"spriteSourceSize": {
						"x": 7,
						"y": 0,
						"w": 21,
						"h": 31
					},
					"frame": {
						"x": 543,
						"y": 67,
						"w": 21,
						"h": 31
					}
				},
				{
					"filename": "bird/walk02.png",
					"rotated": false,
					"trimmed": true,
					"sourceSize": {
						"w": 32,
						"h": 32
					},
					"spriteSourceSize": {
						"x": 4,
						"y": 4,
						"w": 23,
						"h": 27
					},
					"frame": {
						"x": 563,
						"y": 100,
						"w": 23,
						"h": 27
					}
				},
				{
					"filename": "enemies/blaze/idle07.png",
					"rotated": false,
					"trimmed": true,
					"sourceSize": {
						"w": 32,
						"h": 32
					},
					"spriteSourceSize": {
						"x": 7,
						"y": 0,
						"w": 19,
						"h": 31
					},
					"frame": {
						"x": 549,
						"y": 34,
						"w": 19,
						"h": 31
					}
				},
				{
					"filename": "enemies/blaze/idle08.png",
					"rotated": false,
					"trimmed": true,
					"sourceSize": {
						"w": 32,
						"h": 32
					},
					"spriteSourceSize": {
						"x": 7,
						"y": 0,
						"w": 19,
						"h": 31
					},
					"frame": {
						"x": 566,
						"y": 67,
						"w": 19,
						"h": 31
					}
				},
				{
					"filename": "enemies/blaze/idle09.png",
					"rotated": false,
					"trimmed": true,
					"sourceSize": {
						"w": 32,
						"h": 32
					},
					"spriteSourceSize": {
						"x": 7,
						"y": 0,
						"w": 19,
						"h": 31
					},
					"frame": {
						"x": 570,
						"y": 1,
						"w": 19,
						"h": 31
					}
				},
				{
					"filename": "enemies/blaze/idle15.png",
					"rotated": false,
					"trimmed": true,
					"sourceSize": {
						"w": 32,
						"h": 32
					},
					"spriteSourceSize": {
						"x": 7,
						"y": 0,
						"w": 19,
						"h": 31
					},
					"frame": {
						"x": 570,
						"y": 1,
						"w": 19,
						"h": 31
					}
				},
				{
					"filename": "enemies/blaze/idle10.png",
					"rotated": false,
					"trimmed": true,
					"sourceSize": {
						"w": 32,
						"h": 32
					},
					"spriteSourceSize": {
						"x": 7,
						"y": 0,
						"w": 19,
						"h": 31
					},
					"frame": {
						"x": 570,
						"y": 34,
						"w": 19,
						"h": 31
					}
				},
				{
					"filename": "enemies/blaze/idle14.png",
					"rotated": false,
					"trimmed": true,
					"sourceSize": {
						"w": 32,
						"h": 32
					},
					"spriteSourceSize": {
						"x": 7,
						"y": 0,
						"w": 19,
						"h": 31
					},
					"frame": {
						"x": 570,
						"y": 34,
						"w": 19,
						"h": 31
					}
				},
				{
					"filename": "enemies/blaze/idle11.png",
					"rotated": false,
					"trimmed": true,
					"sourceSize": {
						"w": 32,
						"h": 32
					},
					"spriteSourceSize": {
						"x": 7,
						"y": 0,
						"w": 19,
						"h": 31
					},
					"frame": {
						"x": 587,
						"y": 67,
						"w": 19,
						"h": 31
					}
				},
				{
					"filename": "enemies/blaze/idle13.png",
					"rotated": false,
					"trimmed": true,
					"sourceSize": {
						"w": 32,
						"h": 32
					},
					"spriteSourceSize": {
						"x": 7,
						"y": 0,
						"w": 19,
						"h": 31
					},
					"frame": {
						"x": 587,
						"y": 67,
						"w": 19,
						"h": 31
					}
				},
				{
					"filename": "bird/walk01.png",
					"rotated": false,
					"trimmed": true,
					"sourceSize": {
						"w": 32,
						"h": 32
					},
					"spriteSourceSize": {
						"x": 2,
						"y": 5,
						"w": 25,
						"h": 26
					},
					"frame": {
						"x": 588,
						"y": 100,
						"w": 25,
						"h": 26
					}
				},
				{
					"filename": "enemies/blaze/idle12.png",
					"rotated": false,
					"trimmed": true,
					"sourceSize": {
						"w": 32,
						"h": 32
					},
					"spriteSourceSize": {
						"x": 7,
						"y": 0,
						"w": 19,
						"h": 31
					},
					"frame": {
						"x": 591,
						"y": 1,
						"w": 19,
						"h": 31
					}
				},
				{
					"filename": "enemies/blaze/rage3.png",
					"rotated": false,
					"trimmed": true,
					"sourceSize": {
						"w": 32,
						"h": 32
					},
					"spriteSourceSize": {
						"x": 7,
						"y": 1,
						"w": 19,
						"h": 31
					},
					"frame": {
						"x": 591,
						"y": 34,
						"w": 19,
						"h": 31
					}
				},
				{
					"filename": "enemies/blaze/attack16.png",
					"rotated": false,
					"trimmed": true,
					"sourceSize": {
						"w": 32,
						"h": 32
					},
					"spriteSourceSize": {
						"x": 7,
						"y": 0,
						"w": 18,
						"h": 31
					},
					"frame": {
						"x": 608,
						"y": 67,
						"w": 18,
						"h": 31
					}
				},
				{
					"filename": "enemies/blaze/attack7.png",
					"rotated": false,
					"trimmed": true,
					"sourceSize": {
						"w": 32,
						"h": 32
					},
					"spriteSourceSize": {
						"x": 8,
						"y": 4,
						"w": 24,
						"h": 26
					},
					"frame": {
						"x": 615,
						"y": 100,
						"w": 24,
						"h": 26
					}
				},
				{
					"filename": "enemies/flamo/walk04.png",
					"rotated": false,
					"trimmed": false,
					"sourceSize": {
						"w": 21,
						"h": 29
					},
					"spriteSourceSize": {
						"x": 0,
						"y": 0,
						"w": 21,
						"h": 29
					},
					"frame": {
						"x": 612,
						"y": 1,
						"w": 21,
						"h": 29
					}
				},
				{
					"filename": "enemies/blaze/attack11.png",
					"rotated": false,
					"trimmed": true,
					"sourceSize": {
						"w": 32,
						"h": 32
					},
					"spriteSourceSize": {
						"x": 7,
						"y": 0,
						"w": 25,
						"h": 28
					},
					"frame": {
						"x": 612,
						"y": 32,
						"w": 25,
						"h": 28
					}
				},
				{
					"filename": "enemies/blaze/attack5.png",
					"rotated": false,
					"trimmed": true,
					"sourceSize": {
						"w": 32,
						"h": 32
					},
					"spriteSourceSize": {
						"x": 8,
						"y": 2,
						"w": 24,
						"h": 28
					},
					"frame": {
						"x": 635,
						"y": 1,
						"w": 24,
						"h": 28
					}
				},
				{
					"filename": "enemies/blaze/attack6.png",
					"rotated": false,
					"trimmed": true,
					"sourceSize": {
						"w": 32,
						"h": 32
					},
					"spriteSourceSize": {
						"x": 8,
						"y": 2,
						"w": 24,
						"h": 28
					},
					"frame": {
						"x": 628,
						"y": 62,
						"w": 24,
						"h": 28
					}
				},
				{
					"filename": "enemies/blaze/attack8.png",
					"rotated": false,
					"trimmed": true,
					"sourceSize": {
						"w": 32,
						"h": 32
					},
					"spriteSourceSize": {
						"x": 8,
						"y": 2,
						"w": 24,
						"h": 28
					},
					"frame": {
						"x": 639,
						"y": 31,
						"w": 24,
						"h": 28
					}
				},
				{
					"filename": "bird/fly01.png",
					"rotated": false,
					"trimmed": true,
					"sourceSize": {
						"w": 32,
						"h": 32
					},
					"spriteSourceSize": {
						"x": 2,
						"y": 4,
						"w": 27,
						"h": 25
					},
					"frame": {
						"x": 661,
						"y": 1,
						"w": 27,
						"h": 25
					}
				},
				{
					"filename": "bunny/walk02.png",
					"rotated": false,
					"trimmed": true,
					"sourceSize": {
						"w": 32,
						"h": 32
					},
					"spriteSourceSize": {
						"x": 2,
						"y": 6,
						"w": 26,
						"h": 25
					},
					"frame": {
						"x": 641,
						"y": 92,
						"w": 26,
						"h": 25
					}
				},
				{
					"filename": "bunny/walk06.png",
					"rotated": false,
					"trimmed": true,
					"sourceSize": {
						"w": 32,
						"h": 32
					},
					"spriteSourceSize": {
						"x": 2,
						"y": 4,
						"w": 26,
						"h": 25
					},
					"frame": {
						"x": 641,
						"y": 92,
						"w": 26,
						"h": 25
					}
				},
				{
					"filename": "bunny/walk03.png",
					"rotated": false,
					"trimmed": true,
					"sourceSize": {
						"w": 32,
						"h": 32
					},
					"spriteSourceSize": {
						"x": 3,
						"y": 2,
						"w": 26,
						"h": 25
					},
					"frame": {
						"x": 654,
						"y": 61,
						"w": 26,
						"h": 25
					}
				},
				{
					"filename": "bunny/walk05.png",
					"rotated": false,
					"trimmed": true,
					"sourceSize": {
						"w": 32,
						"h": 32
					},
					"spriteSourceSize": {
						"x": 3,
						"y": 2,
						"w": 26,
						"h": 25
					},
					"frame": {
						"x": 654,
						"y": 61,
						"w": 26,
						"h": 25
					}
				},
				{
					"filename": "bird/idle03.png",
					"rotated": false,
					"trimmed": true,
					"sourceSize": {
						"w": 32,
						"h": 32
					},
					"spriteSourceSize": {
						"x": 1,
						"y": 8,
						"w": 26,
						"h": 22
					},
					"frame": {
						"x": 665,
						"y": 28,
						"w": 26,
						"h": 22
					}
				},
				{
					"filename": "bird/idle04.png",
					"rotated": false,
					"trimmed": true,
					"sourceSize": {
						"w": 32,
						"h": 32
					},
					"spriteSourceSize": {
						"x": 0,
						"y": 8,
						"w": 23,
						"h": 22
					},
					"frame": {
						"x": 690,
						"y": 1,
						"w": 23,
						"h": 22
					}
				},
				{
					"filename": "bunny/walk04.png",
					"rotated": false,
					"trimmed": true,
					"sourceSize": {
						"w": 32,
						"h": 32
					},
					"spriteSourceSize": {
						"x": 3,
						"y": 3,
						"w": 27,
						"h": 21
					},
					"frame": {
						"x": 715,
						"y": 1,
						"w": 27,
						"h": 21
					}
				},
				{
					"filename": "lizard/idle03.png",
					"rotated": false,
					"trimmed": true,
					"sourceSize": {
						"w": 36,
						"h": 20
					},
					"spriteSourceSize": {
						"x": 1,
						"y": 3,
						"w": 35,
						"h": 14
					},
					"frame": {
						"x": 693,
						"y": 25,
						"w": 35,
						"h": 14
					}
				},
				{
					"filename": "lizard/idle04.png",
					"rotated": false,
					"trimmed": true,
					"sourceSize": {
						"w": 36,
						"h": 20
					},
					"spriteSourceSize": {
						"x": 1,
						"y": 3,
						"w": 35,
						"h": 14
					},
					"frame": {
						"x": 693,
						"y": 41,
						"w": 35,
						"h": 14
					}
				},
				{
					"filename": "lizard/idle05.png",
					"rotated": false,
					"trimmed": true,
					"sourceSize": {
						"w": 36,
						"h": 20
					},
					"spriteSourceSize": {
						"x": 1,
						"y": 3,
						"w": 35,
						"h": 14
					},
					"frame": {
						"x": 669,
						"y": 88,
						"w": 35,
						"h": 14
					}
				},
				{
					"filename": "lizard/idle02.png",
					"rotated": false,
					"trimmed": true,
					"sourceSize": {
						"w": 36,
						"h": 20
					},
					"spriteSourceSize": {
						"x": 4,
						"y": 3,
						"w": 32,
						"h": 14
					},
					"frame": {
						"x": 706,
						"y": 57,
						"w": 32,
						"h": 14
					}
				},
				{
					"filename": "lizard/walk02.png",
					"rotated": false,
					"trimmed": true,
					"sourceSize": {
						"w": 36,
						"h": 20
					},
					"spriteSourceSize": {
						"x": 7,
						"y": 4,
						"w": 29,
						"h": 13
					},
					"frame": {
						"x": 682,
						"y": 73,
						"w": 29,
						"h": 13
					}
				},
				{
					"filename": "lizard/idle01.png",
					"rotated": false,
					"trimmed": true,
					"sourceSize": {
						"w": 36,
						"h": 20
					},
					"spriteSourceSize": {
						"x": 7,
						"y": 3,
						"w": 29,
						"h": 14
					},
					"frame": {
						"x": 713,
						"y": 73,
						"w": 29,
						"h": 14
					}
				},
				{
					"filename": "lizard/walk05.png",
					"rotated": false,
					"trimmed": true,
					"sourceSize": {
						"w": 36,
						"h": 20
					},
					"spriteSourceSize": {
						"x": 7,
						"y": 3,
						"w": 29,
						"h": 14
					},
					"frame": {
						"x": 713,
						"y": 73,
						"w": 29,
						"h": 14
					}
				},
				{
					"filename": "lizard/walk01.png",
					"rotated": false,
					"trimmed": true,
					"sourceSize": {
						"w": 36,
						"h": 20
					},
					"spriteSourceSize": {
						"x": 7,
						"y": 3,
						"w": 29,
						"h": 14
					},
					"frame": {
						"x": 706,
						"y": 89,
						"w": 29,
						"h": 14
					}
				},
				{
					"filename": "lizard/walk03.png",
					"rotated": false,
					"trimmed": true,
					"sourceSize": {
						"w": 36,
						"h": 20
					},
					"spriteSourceSize": {
						"x": 7,
						"y": 3,
						"w": 29,
						"h": 14
					},
					"frame": {
						"x": 669,
						"y": 104,
						"w": 29,
						"h": 14
					}
				},
				{
					"filename": "lizard/walk04.png",
					"rotated": false,
					"trimmed": true,
					"sourceSize": {
						"w": 36,
						"h": 20
					},
					"spriteSourceSize": {
						"x": 7,
						"y": 4,
						"w": 29,
						"h": 13
					},
					"frame": {
						"x": 700,
						"y": 105,
						"w": 29,
						"h": 13
					}
				}
			]
		}
	],
	"meta": {
		"app": "https://www.codeandweb.com/texturepacker",
		"version": "3.0",
		"smartupdate": "$TexturePacker:SmartUpdate:7aa2cbf025482f72cc7ac463d347c6b9:d76a0a173fced271751e0702a2b6885a:cbce6b53f0f49e0bf15173c25c41f876$"
	}
}
